(kicad_sch (version 20230121) (generator eeschema)

  (uuid 960ec788-1c58-45ee-9e86-ccb7dc2db300)

  (paper "A4")

  (lib_symbols
    (symbol "Connector:Conn_01x07_Pin" (pin_names (offset 1.016) hide) (in_bom yes) (on_board yes)
      (property "Reference" "J" (at 0 10.16 0)
        (effects (font (size 1.27 1.27)))
      )
      (property "Value" "Conn_01x07_Pin" (at 0 -10.16 0)
        (effects (font (size 1.27 1.27)))
      )
      (property "Footprint" "" (at 0 0 0)
        (effects (font (size 1.27 1.27)) hide)
      )
      (property "Datasheet" "~" (at 0 0 0)
        (effects (font (size 1.27 1.27)) hide)
      )
      (property "ki_locked" "" (at 0 0 0)
        (effects (font (size 1.27 1.27)))
      )
      (property "ki_keywords" "connector" (at 0 0 0)
        (effects (font (size 1.27 1.27)) hide)
      )
      (property "ki_description" "Generic connector, single row, 01x07, script generated" (at 0 0 0)
        (effects (font (size 1.27 1.27)) hide)
      )
      (property "ki_fp_filters" "Connector*:*_1x??_*" (at 0 0 0)
        (effects (font (size 1.27 1.27)) hide)
      )
      (symbol "Conn_01x07_Pin_1_1"
        (polyline
          (pts
            (xy 1.27 -7.62)
            (xy 0.8636 -7.62)
          )
          (stroke (width 0.1524) (type default))
          (fill (type none))
        )
        (polyline
          (pts
            (xy 1.27 -5.08)
            (xy 0.8636 -5.08)
          )
          (stroke (width 0.1524) (type default))
          (fill (type none))
        )
        (polyline
          (pts
            (xy 1.27 -2.54)
            (xy 0.8636 -2.54)
          )
          (stroke (width 0.1524) (type default))
          (fill (type none))
        )
        (polyline
          (pts
            (xy 1.27 0)
            (xy 0.8636 0)
          )
          (stroke (width 0.1524) (type default))
          (fill (type none))
        )
        (polyline
          (pts
            (xy 1.27 2.54)
            (xy 0.8636 2.54)
          )
          (stroke (width 0.1524) (type default))
          (fill (type none))
        )
        (polyline
          (pts
            (xy 1.27 5.08)
            (xy 0.8636 5.08)
          )
          (stroke (width 0.1524) (type default))
          (fill (type none))
        )
        (polyline
          (pts
            (xy 1.27 7.62)
            (xy 0.8636 7.62)
          )
          (stroke (width 0.1524) (type default))
          (fill (type none))
        )
        (rectangle (start 0.8636 -7.493) (end 0 -7.747)
          (stroke (width 0.1524) (type default))
          (fill (type outline))
        )
        (rectangle (start 0.8636 -4.953) (end 0 -5.207)
          (stroke (width 0.1524) (type default))
          (fill (type outline))
        )
        (rectangle (start 0.8636 -2.413) (end 0 -2.667)
          (stroke (width 0.1524) (type default))
          (fill (type outline))
        )
        (rectangle (start 0.8636 0.127) (end 0 -0.127)
          (stroke (width 0.1524) (type default))
          (fill (type outline))
        )
        (rectangle (start 0.8636 2.667) (end 0 2.413)
          (stroke (width 0.1524) (type default))
          (fill (type outline))
        )
        (rectangle (start 0.8636 5.207) (end 0 4.953)
          (stroke (width 0.1524) (type default))
          (fill (type outline))
        )
        (rectangle (start 0.8636 7.747) (end 0 7.493)
          (stroke (width 0.1524) (type default))
          (fill (type outline))
        )
        (pin passive line (at 5.08 7.62 180) (length 3.81)
          (name "Pin_1" (effects (font (size 1.27 1.27))))
          (number "1" (effects (font (size 1.27 1.27))))
        )
        (pin passive line (at 5.08 5.08 180) (length 3.81)
          (name "Pin_2" (effects (font (size 1.27 1.27))))
          (number "2" (effects (font (size 1.27 1.27))))
        )
        (pin passive line (at 5.08 2.54 180) (length 3.81)
          (name "Pin_3" (effects (font (size 1.27 1.27))))
          (number "3" (effects (font (size 1.27 1.27))))
        )
        (pin passive line (at 5.08 0 180) (length 3.81)
          (name "Pin_4" (effects (font (size 1.27 1.27))))
          (number "4" (effects (font (size 1.27 1.27))))
        )
        (pin passive line (at 5.08 -2.54 180) (length 3.81)
          (name "Pin_5" (effects (font (size 1.27 1.27))))
          (number "5" (effects (font (size 1.27 1.27))))
        )
        (pin passive line (at 5.08 -5.08 180) (length 3.81)
          (name "Pin_6" (effects (font (size 1.27 1.27))))
          (number "6" (effects (font (size 1.27 1.27))))
        )
        (pin passive line (at 5.08 -7.62 180) (length 3.81)
          (name "Pin_7" (effects (font (size 1.27 1.27))))
          (number "7" (effects (font (size 1.27 1.27))))
        )
      )
    )
    (symbol "Device:LED" (pin_numbers hide) (pin_names (offset 1.016) hide) (in_bom yes) (on_board yes)
      (property "Reference" "D" (at 0 2.54 0)
        (effects (font (size 1.27 1.27)))
      )
      (property "Value" "LED" (at 0 -2.54 0)
        (effects (font (size 1.27 1.27)))
      )
      (property "Footprint" "" (at 0 0 0)
        (effects (font (size 1.27 1.27)) hide)
      )
      (property "Datasheet" "~" (at 0 0 0)
        (effects (font (size 1.27 1.27)) hide)
      )
      (property "ki_keywords" "LED diode" (at 0 0 0)
        (effects (font (size 1.27 1.27)) hide)
      )
      (property "ki_description" "Light emitting diode" (at 0 0 0)
        (effects (font (size 1.27 1.27)) hide)
      )
      (property "ki_fp_filters" "LED* LED_SMD:* LED_THT:*" (at 0 0 0)
        (effects (font (size 1.27 1.27)) hide)
      )
      (symbol "LED_0_1"
        (polyline
          (pts
            (xy -1.27 -1.27)
            (xy -1.27 1.27)
          )
          (stroke (width 0.254) (type default))
          (fill (type none))
        )
        (polyline
          (pts
            (xy -1.27 0)
            (xy 1.27 0)
          )
          (stroke (width 0) (type default))
          (fill (type none))
        )
        (polyline
          (pts
            (xy 1.27 -1.27)
            (xy 1.27 1.27)
            (xy -1.27 0)
            (xy 1.27 -1.27)
          )
          (stroke (width 0.254) (type default))
          (fill (type none))
        )
        (polyline
          (pts
            (xy -3.048 -0.762)
            (xy -4.572 -2.286)
            (xy -3.81 -2.286)
            (xy -4.572 -2.286)
            (xy -4.572 -1.524)
          )
          (stroke (width 0) (type default))
          (fill (type none))
        )
        (polyline
          (pts
            (xy -1.778 -0.762)
            (xy -3.302 -2.286)
            (xy -2.54 -2.286)
            (xy -3.302 -2.286)
            (xy -3.302 -1.524)
          )
          (stroke (width 0) (type default))
          (fill (type none))
        )
      )
      (symbol "LED_1_1"
        (pin passive line (at -3.81 0 0) (length 2.54)
          (name "K" (effects (font (size 1.27 1.27))))
          (number "1" (effects (font (size 1.27 1.27))))
        )
        (pin passive line (at 3.81 0 180) (length 2.54)
          (name "A" (effects (font (size 1.27 1.27))))
          (number "2" (effects (font (size 1.27 1.27))))
        )
      )
    )
    (symbol "Device:R" (pin_numbers hide) (pin_names (offset 0)) (in_bom yes) (on_board yes)
      (property "Reference" "R" (at 2.032 0 90)
        (effects (font (size 1.27 1.27)))
      )
      (property "Value" "R" (at 0 0 90)
        (effects (font (size 1.27 1.27)))
      )
      (property "Footprint" "" (at -1.778 0 90)
        (effects (font (size 1.27 1.27)) hide)
      )
      (property "Datasheet" "~" (at 0 0 0)
        (effects (font (size 1.27 1.27)) hide)
      )
      (property "ki_keywords" "R res resistor" (at 0 0 0)
        (effects (font (size 1.27 1.27)) hide)
      )
      (property "ki_description" "Resistor" (at 0 0 0)
        (effects (font (size 1.27 1.27)) hide)
      )
      (property "ki_fp_filters" "R_*" (at 0 0 0)
        (effects (font (size 1.27 1.27)) hide)
      )
      (symbol "R_0_1"
        (rectangle (start -1.016 -2.54) (end 1.016 2.54)
          (stroke (width 0.254) (type default))
          (fill (type none))
        )
      )
      (symbol "R_1_1"
        (pin passive line (at 0 3.81 270) (length 1.27)
          (name "~" (effects (font (size 1.27 1.27))))
          (number "1" (effects (font (size 1.27 1.27))))
        )
        (pin passive line (at 0 -3.81 90) (length 1.27)
          (name "~" (effects (font (size 1.27 1.27))))
          (number "2" (effects (font (size 1.27 1.27))))
        )
      )
    )
    (symbol "power:GND" (power) (pin_names (offset 0)) (in_bom yes) (on_board yes)
      (property "Reference" "#PWR" (at 0 -6.35 0)
        (effects (font (size 1.27 1.27)) hide)
      )
      (property "Value" "GND" (at 0 -3.81 0)
        (effects (font (size 1.27 1.27)))
      )
      (property "Footprint" "" (at 0 0 0)
        (effects (font (size 1.27 1.27)) hide)
      )
      (property "Datasheet" "" (at 0 0 0)
        (effects (font (size 1.27 1.27)) hide)
      )
      (property "ki_keywords" "global power" (at 0 0 0)
        (effects (font (size 1.27 1.27)) hide)
      )
      (property "ki_description" "Power symbol creates a global label with name \"GND\" , ground" (at 0 0 0)
        (effects (font (size 1.27 1.27)) hide)
      )
      (symbol "GND_0_1"
        (polyline
          (pts
            (xy 0 0)
            (xy 0 -1.27)
            (xy 1.27 -1.27)
            (xy 0 -2.54)
            (xy -1.27 -1.27)
            (xy 0 -1.27)
          )
          (stroke (width 0) (type default))
          (fill (type none))
        )
      )
      (symbol "GND_1_1"
        (pin power_in line (at 0 0 270) (length 0) hide
          (name "GND" (effects (font (size 1.27 1.27))))
          (number "1" (effects (font (size 1.27 1.27))))
        )
      )
    )
  )


  (wire (pts (xy 90.17 105.41) (xy 90.17 107.95))
    (stroke (width 0) (type default))
    (uuid 0b62677d-82f5-4996-a103-72aca924bcfe)
  )
  (wire (pts (xy 59.69 85.09) (xy 95.25 85.09))
    (stroke (width 0) (type default))
    (uuid 0fccaf55-f924-4dad-b88e-2d064324940e)
  )
  (wire (pts (xy 74.93 105.41) (xy 74.93 119.38))
    (stroke (width 0) (type default))
    (uuid 1b7f7358-1f9d-4073-8ab6-3c4f168a8bdf)
  )
  (wire (pts (xy 74.93 127) (xy 74.93 128.27))
    (stroke (width 0) (type default))
    (uuid 1d092545-f19d-45f1-8f2c-1251e8cc6b82)
  )
  (wire (pts (xy 59.69 92.71) (xy 80.01 92.71))
    (stroke (width 0) (type default))
    (uuid 1f5e9bd0-572f-469f-b442-e06e083df101)
  )
  (wire (pts (xy 59.69 87.63) (xy 90.17 87.63))
    (stroke (width 0) (type default))
    (uuid 27fd1e91-df34-43cb-9a99-909521b04548)
  )
  (wire (pts (xy 95.25 105.41) (xy 95.25 119.38))
    (stroke (width 0) (type default))
    (uuid 3cef048c-41ad-4cc6-9cb7-9525d8d4f781)
  )
  (wire (pts (xy 80.01 92.71) (xy 80.01 97.79))
    (stroke (width 0) (type default))
    (uuid 4038b1ff-10cf-45af-85f4-0f1a8bdf513d)
  )
  (wire (pts (xy 74.93 95.25) (xy 74.93 97.79))
    (stroke (width 0) (type default))
    (uuid 43a80eab-cdf5-4b70-842f-56603d3f3bfa)
  )
  (wire (pts (xy 59.69 90.17) (xy 85.09 90.17))
    (stroke (width 0) (type default))
    (uuid 442db673-578f-4656-92c5-dd38f3d92163)
  )
  (wire (pts (xy 64.77 73.66) (xy 69.85 73.66))
    (stroke (width 0) (type default))
    (uuid 563dbe0e-cbea-48be-8583-316bc84d5405)
  )
  (wire (pts (xy 85.09 105.41) (xy 85.09 119.38))
    (stroke (width 0) (type default))
    (uuid 5f52513f-3de4-4ade-b06d-1e9cbab4f108)
  )
  (wire (pts (xy 80.01 115.57) (xy 80.01 116.84))
    (stroke (width 0) (type default))
    (uuid 61b76160-9b11-44f6-bbed-a855a6878d64)
  )
  (wire (pts (xy 95.25 127) (xy 95.25 128.27))
    (stroke (width 0) (type default))
    (uuid 6fd5b815-710b-4d1c-bdba-c1ad3de9b929)
  )
  (wire (pts (xy 100.33 115.57) (xy 100.33 116.84))
    (stroke (width 0) (type default))
    (uuid 7a1890f7-0c1f-497f-a076-cb99824c7620)
  )
  (wire (pts (xy 100.33 82.55) (xy 100.33 97.79))
    (stroke (width 0) (type default))
    (uuid 806d3627-cd3f-4409-8fd9-2f12f9cafa54)
  )
  (wire (pts (xy 85.09 127) (xy 85.09 128.27))
    (stroke (width 0) (type default))
    (uuid 80dd39e2-d301-41b9-bd66-2cb71ff16041)
  )
  (wire (pts (xy 80.01 105.41) (xy 80.01 107.95))
    (stroke (width 0) (type default))
    (uuid 86ddbcb6-6687-4850-80a3-d11304f669b2)
  )
  (wire (pts (xy 64.77 80.01) (xy 64.77 73.66))
    (stroke (width 0) (type default))
    (uuid 8a06e6fa-626a-4ba2-9a7a-bcfff60ec97b)
  )
  (wire (pts (xy 90.17 115.57) (xy 90.17 116.84))
    (stroke (width 0) (type default))
    (uuid 92b3d5d0-b735-4d2b-8af6-f64711ec4949)
  )
  (wire (pts (xy 90.17 87.63) (xy 90.17 97.79))
    (stroke (width 0) (type default))
    (uuid a1f7298a-77a2-4b48-bda9-943e1009d336)
  )
  (wire (pts (xy 95.25 85.09) (xy 95.25 97.79))
    (stroke (width 0) (type default))
    (uuid b1309200-dbbd-4810-a1d6-f36149538643)
  )
  (wire (pts (xy 59.69 80.01) (xy 64.77 80.01))
    (stroke (width 0) (type default))
    (uuid c4e75bac-9e48-4659-8181-14d288d57b9d)
  )
  (wire (pts (xy 100.33 105.41) (xy 100.33 107.95))
    (stroke (width 0) (type default))
    (uuid c85f20ec-427b-4e56-a2fc-f6b0a0907b57)
  )
  (wire (pts (xy 69.85 73.66) (xy 69.85 74.93))
    (stroke (width 0) (type default))
    (uuid cde54078-a140-47a1-b4ae-c75911bd0b76)
  )
  (wire (pts (xy 85.09 90.17) (xy 85.09 97.79))
    (stroke (width 0) (type default))
    (uuid dfe522d4-e371-4b55-90c4-75139a32092c)
  )
  (wire (pts (xy 59.69 95.25) (xy 74.93 95.25))
    (stroke (width 0) (type default))
    (uuid e5865129-e484-46b5-a4a9-4e9e09fdf000)
  )
  (wire (pts (xy 59.69 82.55) (xy 100.33 82.55))
    (stroke (width 0) (type default))
    (uuid f70a5e67-197a-4a58-a745-b8d85e00475d)
  )

  (text "(5V-2V) / 4k7 = 0.64mA\n(12V-2V) / 4k7 = 1.91mA " (at 115.57 87.63 0)
    (effects (font (size 1.27 1.27)) (justify left bottom))
    (uuid 7ef6094d-5d56-4d39-b26e-38b4bb0436c3)
  )

  (label "8V_ON" (at 71.12 95.25 180) (fields_autoplaced)
    (effects (font (size 1.27 1.27)) (justify right bottom))
    (uuid 57481a32-4c84-4646-9817-83c81b6f9d3b)
  )
  (label "ACC" (at 71.12 90.17 180) (fields_autoplaced)
    (effects (font (size 1.27 1.27)) (justify right bottom))
    (uuid 703150a6-1a56-41cc-b3b5-257d3e2b4aeb)
  )
  (label "EJECT" (at 71.12 87.63 180) (fields_autoplaced)
    (effects (font (size 1.27 1.27)) (justify right bottom))
    (uuid 974a1843-4e3c-456c-ac1c-40e6791815f2)
  )
  (label "MUTE" (at 71.12 85.09 180) (fields_autoplaced)
    (effects (font (size 1.27 1.27)) (justify right bottom))
    (uuid 9f467507-ec1b-4b7f-b786-cc77feeacaeb)
  )
  (label "+B_DET" (at 71.12 92.71 180) (fields_autoplaced)
    (effects (font (size 1.27 1.27)) (justify right bottom))
    (uuid b7e47ff2-954b-4ab8-ae3f-3b0b41558de6)
  )
  (label "Bus+" (at 71.12 82.55 180) (fields_autoplaced)
    (effects (font (size 1.27 1.27)) (justify right bottom))
    (uuid def460a8-f8b3-4e6d-8640-8a1d44cdbe9f)
  )

  (symbol (lib_id "power:GND") (at 85.09 128.27 0) (unit 1)
    (in_bom yes) (on_board yes) (dnp no) (fields_autoplaced)
    (uuid 0b97b3d2-c8e2-4c0d-bc3a-a27b0eaf8b41)
    (property "Reference" "#PWR06" (at 85.09 134.62 0)
      (effects (font (size 1.27 1.27)) hide)
    )
    (property "Value" "GND" (at 85.09 133.35 0)
      (effects (font (size 1.27 1.27)) hide)
    )
    (property "Footprint" "" (at 85.09 128.27 0)
      (effects (font (size 1.27 1.27)) hide)
    )
    (property "Datasheet" "" (at 85.09 128.27 0)
      (effects (font (size 1.27 1.27)) hide)
    )
    (pin "1" (uuid aed6a3b6-d9c2-43cc-a7a9-327b6bb5d9f9))
    (instances
      (project "debug-pcb"
        (path "/960ec788-1c58-45ee-9e86-ccb7dc2db300"
          (reference "#PWR06") (unit 1)
        )
      )
    )
  )

  (symbol (lib_id "power:GND") (at 80.01 116.84 0) (unit 1)
    (in_bom yes) (on_board yes) (dnp no) (fields_autoplaced)
    (uuid 247a2188-f2c9-4e08-965d-5c3a0a4eef87)
    (property "Reference" "#PWR02" (at 80.01 123.19 0)
      (effects (font (size 1.27 1.27)) hide)
    )
    (property "Value" "GND" (at 80.01 121.92 0)
      (effects (font (size 1.27 1.27)) hide)
    )
    (property "Footprint" "" (at 80.01 116.84 0)
      (effects (font (size 1.27 1.27)) hide)
    )
    (property "Datasheet" "" (at 80.01 116.84 0)
      (effects (font (size 1.27 1.27)) hide)
    )
    (pin "1" (uuid b1cdc7e8-ec39-43df-8834-48a589f47f78))
    (instances
      (project "debug-pcb"
        (path "/960ec788-1c58-45ee-9e86-ccb7dc2db300"
          (reference "#PWR02") (unit 1)
        )
      )
    )
  )

  (symbol (lib_id "Device:LED") (at 74.93 123.19 90) (unit 1)
    (in_bom yes) (on_board yes) (dnp no) (fields_autoplaced)
    (uuid 25806fbc-374b-4f27-a12c-5ef25a9efc5a)
    (property "Reference" "D6" (at 78.74 123.5075 90)
      (effects (font (size 1.27 1.27)) (justify right))
    )
    (property "Value" "8V" (at 78.74 126.0475 90)
      (effects (font (size 1.27 1.27)) (justify right))
    )
    (property "Footprint" "LED_SMD:LED_0805_2012Metric" (at 74.93 123.19 0)
      (effects (font (size 1.27 1.27)) hide)
    )
    (property "Datasheet" "~" (at 74.93 123.19 0)
      (effects (font (size 1.27 1.27)) hide)
    )
    (pin "1" (uuid 8ab4eae9-2e6e-400d-9627-afb21244d4ee))
    (pin "2" (uuid 863b5c89-ac1e-45ab-abfd-99f41290e63a))
    (instances
      (project "debug-pcb"
        (path "/960ec788-1c58-45ee-9e86-ccb7dc2db300"
          (reference "D6") (unit 1)
        )
      )
    )
  )

  (symbol (lib_id "Device:LED") (at 90.17 111.76 90) (unit 1)
    (in_bom yes) (on_board yes) (dnp no) (fields_autoplaced)
    (uuid 2acf52d1-bc17-4402-8b4e-c13ef484ab7a)
    (property "Reference" "D3" (at 93.98 112.0775 90)
      (effects (font (size 1.27 1.27)) (justify right))
    )
    (property "Value" "EJ" (at 93.98 114.6175 90)
      (effects (font (size 1.27 1.27)) (justify right))
    )
    (property "Footprint" "LED_SMD:LED_0805_2012Metric" (at 90.17 111.76 0)
      (effects (font (size 1.27 1.27)) hide)
    )
    (property "Datasheet" "~" (at 90.17 111.76 0)
      (effects (font (size 1.27 1.27)) hide)
    )
    (pin "1" (uuid dee06ca4-724d-40e6-84af-92e5ecb6d739))
    (pin "2" (uuid b04b54ee-8dc2-418f-88d9-e07486767f78))
    (instances
      (project "debug-pcb"
        (path "/960ec788-1c58-45ee-9e86-ccb7dc2db300"
          (reference "D3") (unit 1)
        )
      )
    )
  )

  (symbol (lib_id "Device:R") (at 80.01 101.6 0) (unit 1)
    (in_bom yes) (on_board yes) (dnp no)
    (uuid 38749404-4cd3-4928-9ed1-5fa68939d107)
    (property "Reference" "R5" (at 82.55 99.06 90)
      (effects (font (size 1.27 1.27)))
    )
    (property "Value" "4k7" (at 82.55 104.14 90)
      (effects (font (size 1.27 1.27)))
    )
    (property "Footprint" "Resistor_SMD:R_0805_2012Metric" (at 78.232 101.6 90)
      (effects (font (size 1.27 1.27)) hide)
    )
    (property "Datasheet" "~" (at 80.01 101.6 0)
      (effects (font (size 1.27 1.27)) hide)
    )
    (pin "2" (uuid 6bbe044e-70a3-4e96-827e-2634cd77a455))
    (pin "1" (uuid 014e9cbd-a9ef-4a46-ab6b-19448d2f3c57))
    (instances
      (project "debug-pcb"
        (path "/960ec788-1c58-45ee-9e86-ccb7dc2db300"
          (reference "R5") (unit 1)
        )
      )
    )
  )

  (symbol (lib_id "power:GND") (at 69.85 74.93 0) (unit 1)
    (in_bom yes) (on_board yes) (dnp no) (fields_autoplaced)
    (uuid 3f274f19-8c8b-430c-a63a-5af888ccb899)
    (property "Reference" "#PWR01" (at 69.85 81.28 0)
      (effects (font (size 1.27 1.27)) hide)
    )
    (property "Value" "GND" (at 69.85 80.01 0)
      (effects (font (size 1.27 1.27)) hide)
    )
    (property "Footprint" "" (at 69.85 74.93 0)
      (effects (font (size 1.27 1.27)) hide)
    )
    (property "Datasheet" "" (at 69.85 74.93 0)
      (effects (font (size 1.27 1.27)) hide)
    )
    (pin "1" (uuid a81b9986-4683-4388-b983-2f1ed1646275))
    (instances
      (project "debug-pcb"
        (path "/960ec788-1c58-45ee-9e86-ccb7dc2db300"
          (reference "#PWR01") (unit 1)
        )
      )
    )
  )

  (symbol (lib_id "power:GND") (at 90.17 116.84 0) (unit 1)
    (in_bom yes) (on_board yes) (dnp no) (fields_autoplaced)
    (uuid 404a811d-f9db-4f1a-b0d6-5ca67f778dc5)
    (property "Reference" "#PWR03" (at 90.17 123.19 0)
      (effects (font (size 1.27 1.27)) hide)
    )
    (property "Value" "GND" (at 90.17 121.92 0)
      (effects (font (size 1.27 1.27)) hide)
    )
    (property "Footprint" "" (at 90.17 116.84 0)
      (effects (font (size 1.27 1.27)) hide)
    )
    (property "Datasheet" "" (at 90.17 116.84 0)
      (effects (font (size 1.27 1.27)) hide)
    )
    (pin "1" (uuid a6207e79-9374-4da7-b7e6-5763e6f7f6bd))
    (instances
      (project "debug-pcb"
        (path "/960ec788-1c58-45ee-9e86-ccb7dc2db300"
          (reference "#PWR03") (unit 1)
        )
      )
    )
  )

  (symbol (lib_id "Device:R") (at 100.33 101.6 0) (unit 1)
    (in_bom yes) (on_board yes) (dnp no)
    (uuid 4f24bf0c-00e6-4d57-8922-81399fd471ae)
    (property "Reference" "R1" (at 102.87 99.06 90)
      (effects (font (size 1.27 1.27)))
    )
    (property "Value" "4k7" (at 102.87 104.14 90)
      (effects (font (size 1.27 1.27)))
    )
    (property "Footprint" "Resistor_SMD:R_0805_2012Metric" (at 98.552 101.6 90)
      (effects (font (size 1.27 1.27)) hide)
    )
    (property "Datasheet" "~" (at 100.33 101.6 0)
      (effects (font (size 1.27 1.27)) hide)
    )
    (pin "2" (uuid 72ecd69f-3be9-457d-b4eb-45be8af2d860))
    (pin "1" (uuid 7ee8a315-029c-4c1a-a1dc-49aba4549b2d))
    (instances
      (project "debug-pcb"
        (path "/960ec788-1c58-45ee-9e86-ccb7dc2db300"
          (reference "R1") (unit 1)
        )
      )
    )
  )

  (symbol (lib_id "Device:R") (at 85.09 101.6 0) (unit 1)
    (in_bom yes) (on_board yes) (dnp no)
    (uuid 5be7c5a8-986b-432c-9647-04e239836a19)
    (property "Reference" "R4" (at 87.63 99.06 90)
      (effects (font (size 1.27 1.27)))
    )
    (property "Value" "4k7" (at 87.63 104.14 90)
      (effects (font (size 1.27 1.27)))
    )
    (property "Footprint" "Resistor_SMD:R_0805_2012Metric" (at 83.312 101.6 90)
      (effects (font (size 1.27 1.27)) hide)
    )
    (property "Datasheet" "~" (at 85.09 101.6 0)
      (effects (font (size 1.27 1.27)) hide)
    )
    (pin "2" (uuid a224bbff-5358-42ec-9e7b-bf247c2ae6f4))
    (pin "1" (uuid b0fbf582-cea4-4d71-8887-0b59ea8043e6))
    (instances
      (project "debug-pcb"
        (path "/960ec788-1c58-45ee-9e86-ccb7dc2db300"
          (reference "R4") (unit 1)
        )
      )
    )
  )

  (symbol (lib_id "Device:R") (at 74.93 101.6 0) (unit 1)
    (in_bom yes) (on_board yes) (dnp no)
    (uuid 68caca22-83f8-4338-8274-1db3fc803fd8)
    (property "Reference" "R6" (at 77.47 99.06 90)
      (effects (font (size 1.27 1.27)))
    )
    (property "Value" "4k7" (at 77.47 104.14 90)
      (effects (font (size 1.27 1.27)))
    )
    (property "Footprint" "Resistor_SMD:R_0805_2012Metric" (at 73.152 101.6 90)
      (effects (font (size 1.27 1.27)) hide)
    )
    (property "Datasheet" "~" (at 74.93 101.6 0)
      (effects (font (size 1.27 1.27)) hide)
    )
    (pin "2" (uuid 0c792b37-db1a-4f3d-bcd8-68695b7ee539))
    (pin "1" (uuid 41b4a3e0-0280-42c0-96c0-4fbdbd66bde5))
    (instances
      (project "debug-pcb"
        (path "/960ec788-1c58-45ee-9e86-ccb7dc2db300"
          (reference "R6") (unit 1)
        )
      )
    )
  )

  (symbol (lib_id "Device:R") (at 95.25 101.6 0) (unit 1)
    (in_bom yes) (on_board yes) (dnp no)
    (uuid 6a60a472-470e-410e-9da3-3b0f2cfe0c58)
    (property "Reference" "R2" (at 97.79 99.06 90)
      (effects (font (size 1.27 1.27)))
    )
    (property "Value" "4k7" (at 97.79 104.14 90)
      (effects (font (size 1.27 1.27)))
    )
    (property "Footprint" "Resistor_SMD:R_0805_2012Metric" (at 93.472 101.6 90)
      (effects (font (size 1.27 1.27)) hide)
    )
    (property "Datasheet" "~" (at 95.25 101.6 0)
      (effects (font (size 1.27 1.27)) hide)
    )
    (pin "2" (uuid 9e5d0e29-3139-4404-842a-d6f39091fe70))
    (pin "1" (uuid 148d676c-7023-456a-88e1-c8ecf7b55eb6))
    (instances
      (project "debug-pcb"
        (path "/960ec788-1c58-45ee-9e86-ccb7dc2db300"
          (reference "R2") (unit 1)
        )
      )
    )
  )

  (symbol (lib_id "power:GND") (at 100.33 116.84 0) (unit 1)
    (in_bom yes) (on_board yes) (dnp no) (fields_autoplaced)
    (uuid 79c095f4-35fd-4ca9-98f6-186d3b8bb144)
    (property "Reference" "#PWR04" (at 100.33 123.19 0)
      (effects (font (size 1.27 1.27)) hide)
    )
    (property "Value" "GND" (at 100.33 121.92 0)
      (effects (font (size 1.27 1.27)) hide)
    )
    (property "Footprint" "" (at 100.33 116.84 0)
      (effects (font (size 1.27 1.27)) hide)
    )
    (property "Datasheet" "" (at 100.33 116.84 0)
      (effects (font (size 1.27 1.27)) hide)
    )
    (pin "1" (uuid 8bd7d890-4d0f-4b30-9b72-fb92deba88a7))
    (instances
      (project "debug-pcb"
        (path "/960ec788-1c58-45ee-9e86-ccb7dc2db300"
          (reference "#PWR04") (unit 1)
        )
      )
    )
  )

  (symbol (lib_id "Connector:Conn_01x07_Pin") (at 54.61 87.63 0) (unit 1)
    (in_bom no) (on_board yes) (dnp yes) (fields_autoplaced)
    (uuid 8c65864f-d617-4e5f-a487-1fb670bcf986)
    (property "Reference" "J1" (at 55.245 74.93 0)
      (effects (font (size 1.27 1.27)))
    )
    (property "Value" "Conn_01x07_Pin" (at 55.245 77.47 0)
      (effects (font (size 1.27 1.27)))
    )
    (property "Footprint" "Connector_PinHeader_2.54mm:PinHeader_1x07_P2.54mm_Horizontal" (at 54.61 87.63 0)
      (effects (font (size 1.27 1.27)) hide)
    )
    (property "Datasheet" "~" (at 54.61 87.63 0)
      (effects (font (size 1.27 1.27)) hide)
    )
    (pin "4" (uuid f7a88b4a-ff66-4b76-819a-1b2332f49820))
    (pin "2" (uuid 19a48abc-46aa-41af-8a27-a2ec6dfe697c))
    (pin "1" (uuid d6f69182-7a82-4ed9-b8f6-8cceea58e8d2))
    (pin "3" (uuid 102fb486-670e-40ec-bb85-54fb9b38a816))
    (pin "7" (uuid 2c461b37-b64d-48c6-a9c1-51d99acdf72f))
    (pin "5" (uuid f5c286f4-d09d-438a-9bca-8ff2a790cf78))
    (pin "6" (uuid ccabdcbf-8e00-45e1-98dc-48f6e57d06c1))
    (instances
      (project "debug-pcb"
        (path "/960ec788-1c58-45ee-9e86-ccb7dc2db300"
          (reference "J1") (unit 1)
        )
      )
    )
  )

  (symbol (lib_id "Device:LED") (at 100.33 111.76 90) (unit 1)
    (in_bom yes) (on_board yes) (dnp no) (fields_autoplaced)
    (uuid 9c147293-ed4c-4dd5-901e-009113b7a161)
    (property "Reference" "D1" (at 104.14 112.0775 90)
      (effects (font (size 1.27 1.27)) (justify right))
    )
    (property "Value" "BUS" (at 104.14 114.6175 90)
      (effects (font (size 1.27 1.27)) (justify right))
    )
    (property "Footprint" "LED_SMD:LED_0805_2012Metric" (at 100.33 111.76 0)
      (effects (font (size 1.27 1.27)) hide)
    )
    (property "Datasheet" "~" (at 100.33 111.76 0)
      (effects (font (size 1.27 1.27)) hide)
    )
    (pin "1" (uuid 75211bc2-2893-48e9-8b6a-3e0dd8498333))
    (pin "2" (uuid 79bc488a-22e9-4411-a13e-2e54bd6da918))
    (instances
      (project "debug-pcb"
        (path "/960ec788-1c58-45ee-9e86-ccb7dc2db300"
          (reference "D1") (unit 1)
        )
      )
    )
  )

  (symbol (lib_id "Device:LED") (at 80.01 111.76 90) (unit 1)
    (in_bom yes) (on_board yes) (dnp no) (fields_autoplaced)
    (uuid a220c802-5db2-4994-b8e9-df3aa30e6c1b)
    (property "Reference" "D5" (at 83.82 112.0775 90)
      (effects (font (size 1.27 1.27)) (justify right))
    )
    (property "Value" "BDET" (at 83.82 114.6175 90)
      (effects (font (size 1.27 1.27)) (justify right))
    )
    (property "Footprint" "LED_SMD:LED_0805_2012Metric" (at 80.01 111.76 0)
      (effects (font (size 1.27 1.27)) hide)
    )
    (property "Datasheet" "~" (at 80.01 111.76 0)
      (effects (font (size 1.27 1.27)) hide)
    )
    (pin "1" (uuid 7086fef5-427c-4bb4-a736-0b523e1d6416))
    (pin "2" (uuid 083a1117-1684-451f-9233-ec74551c1e43))
    (instances
      (project "debug-pcb"
        (path "/960ec788-1c58-45ee-9e86-ccb7dc2db300"
          (reference "D5") (unit 1)
        )
      )
    )
  )

  (symbol (lib_id "power:GND") (at 74.93 128.27 0) (unit 1)
    (in_bom yes) (on_board yes) (dnp no) (fields_autoplaced)
    (uuid b7b0af6c-7d20-4eb6-86c4-3465e7eccd2b)
    (property "Reference" "#PWR07" (at 74.93 134.62 0)
      (effects (font (size 1.27 1.27)) hide)
    )
    (property "Value" "GND" (at 74.93 133.35 0)
      (effects (font (size 1.27 1.27)) hide)
    )
    (property "Footprint" "" (at 74.93 128.27 0)
      (effects (font (size 1.27 1.27)) hide)
    )
    (property "Datasheet" "" (at 74.93 128.27 0)
      (effects (font (size 1.27 1.27)) hide)
    )
    (pin "1" (uuid 935246be-aaa5-4d94-930d-8aa7902b570d))
    (instances
      (project "debug-pcb"
        (path "/960ec788-1c58-45ee-9e86-ccb7dc2db300"
          (reference "#PWR07") (unit 1)
        )
      )
    )
  )

  (symbol (lib_id "Device:LED") (at 85.09 123.19 90) (unit 1)
    (in_bom yes) (on_board yes) (dnp no) (fields_autoplaced)
    (uuid d523b19f-762b-4357-a9e7-15bd5151447e)
    (property "Reference" "D4" (at 88.9 123.5075 90)
      (effects (font (size 1.27 1.27)) (justify right))
    )
    (property "Value" "ACC" (at 88.9 126.0475 90)
      (effects (font (size 1.27 1.27)) (justify right))
    )
    (property "Footprint" "LED_SMD:LED_0805_2012Metric" (at 85.09 123.19 0)
      (effects (font (size 1.27 1.27)) hide)
    )
    (property "Datasheet" "~" (at 85.09 123.19 0)
      (effects (font (size 1.27 1.27)) hide)
    )
    (pin "1" (uuid a272afd4-3146-420f-8e61-2bd990122332))
    (pin "2" (uuid 9a1ffb93-7c48-43a7-bbe8-2350e98f89d2))
    (instances
      (project "debug-pcb"
        (path "/960ec788-1c58-45ee-9e86-ccb7dc2db300"
          (reference "D4") (unit 1)
        )
      )
    )
  )

  (symbol (lib_id "Device:R") (at 90.17 101.6 0) (unit 1)
    (in_bom yes) (on_board yes) (dnp no)
    (uuid d9e868e1-620c-4cd0-835a-f2f1bf463980)
    (property "Reference" "R3" (at 92.71 99.06 90)
      (effects (font (size 1.27 1.27)))
    )
    (property "Value" "4k7" (at 92.71 104.14 90)
      (effects (font (size 1.27 1.27)))
    )
    (property "Footprint" "Resistor_SMD:R_0805_2012Metric" (at 88.392 101.6 90)
      (effects (font (size 1.27 1.27)) hide)
    )
    (property "Datasheet" "~" (at 90.17 101.6 0)
      (effects (font (size 1.27 1.27)) hide)
    )
    (pin "2" (uuid fa723149-f133-4ee5-a5df-40cc223c25e6))
    (pin "1" (uuid d41d6444-fd38-4eae-98e5-cfa52b685bc2))
    (instances
      (project "debug-pcb"
        (path "/960ec788-1c58-45ee-9e86-ccb7dc2db300"
          (reference "R3") (unit 1)
        )
      )
    )
  )

  (symbol (lib_id "power:GND") (at 95.25 128.27 0) (unit 1)
    (in_bom yes) (on_board yes) (dnp no) (fields_autoplaced)
    (uuid da588555-06da-45d1-8cd3-242e5435173f)
    (property "Reference" "#PWR05" (at 95.25 134.62 0)
      (effects (font (size 1.27 1.27)) hide)
    )
    (property "Value" "GND" (at 95.25 133.35 0)
      (effects (font (size 1.27 1.27)) hide)
    )
    (property "Footprint" "" (at 95.25 128.27 0)
      (effects (font (size 1.27 1.27)) hide)
    )
    (property "Datasheet" "" (at 95.25 128.27 0)
      (effects (font (size 1.27 1.27)) hide)
    )
    (pin "1" (uuid 7beea4d4-13d5-4f87-8f46-7d4915d05926))
    (instances
      (project "debug-pcb"
        (path "/960ec788-1c58-45ee-9e86-ccb7dc2db300"
          (reference "#PWR05") (unit 1)
        )
      )
    )
  )

  (symbol (lib_id "Device:LED") (at 95.25 123.19 90) (unit 1)
    (in_bom yes) (on_board yes) (dnp no) (fields_autoplaced)
    (uuid f36d646b-ca5f-4397-88fe-73251dc4a7bf)
    (property "Reference" "D2" (at 99.06 123.5075 90)
      (effects (font (size 1.27 1.27)) (justify right))
    )
    (property "Value" "MUTE" (at 99.06 126.0475 90)
      (effects (font (size 1.27 1.27)) (justify right))
    )
    (property "Footprint" "LED_SMD:LED_0805_2012Metric" (at 95.25 123.19 0)
      (effects (font (size 1.27 1.27)) hide)
    )
    (property "Datasheet" "~" (at 95.25 123.19 0)
      (effects (font (size 1.27 1.27)) hide)
    )
    (pin "1" (uuid 64e28927-961d-46f7-af7a-59ac0641488c))
    (pin "2" (uuid cd1c1097-64d5-4c38-be55-5de5832af389))
    (instances
      (project "debug-pcb"
        (path "/960ec788-1c58-45ee-9e86-ccb7dc2db300"
          (reference "D2") (unit 1)
        )
      )
    )
  )

  (sheet_instances
    (path "/" (page "1"))
  )
)
